<?xml version="1.0" encoding="utf-8"?>
<!-- Generator: Adobe Illustrator 25.2.0, SVG Export Plug-In . SVG Version: 6.00 Build 0)  -->
<svg version="1.1" id="Layer_1" xmlns="http://www.w3.org/2000/svg" xmlns:xlink="http://www.w3.org/1999/xlink" x="0px" y="0px"
	 viewBox="0 0 747.6 768" style="enable-background:new 0 0 747.6 768;" xml:space="preserve">
<style type="text/css">
	.st0{clip-path:url(#SVGID_2_);}
	.st1{fill:#FFFFFF;}
	.st2{fill:none;stroke:#000000;stroke-linecap:round;}
	.st3{fill:none;stroke:#000000;}
</style>
<g>
	<g>
		<defs>
			<rect id="SVGID_1_" x="175.6" y="107.5" width="146.5" height="552.9"/>
		</defs>
		<clipPath id="SVGID_2_">
			<use xlink:href="#SVGID_1_"  style="overflow:visible;"/>
		</clipPath>
		<g class="st0">
			<path class="st1" d="M321.3,399.2c0-4.7-0.2-9.9-0.4-15.2c-1-24.6-4.1-52.8-8.5-54.6c3.9,0,2.4-9.5,1.6-16
				c-1.6-12-11.8-40.2-20.7-70.8c-4.1-13.6-10.1-34.3-12.2-49.5c-1.8-14.2-1.4-32.3-1.4-40.2c2.6-2.6,3.7-3.9,3.7-8.1
				c-0.2-4.5-5.7-15.2-5.7-16.8c0-1.6,0-3.5,2-5.3c2.2-2,2-5.5,1-8.3c-1-3.5-5.3-4.5-7.7-5.1c-2.2-0.4-13.4-1.6-24.8-1.6
				c-11.4,0-22.3,1.2-24.6,1.8c-2.4,0.6-6.5,1.6-7.7,5.1c-1,2.8-1,6.3,1,8.3c2,1.8,2,3.7,2,5.3c0,1.6-5.5,12.4-5.5,16.8
				c0,4.3,0.8,5.5,3.5,8.1c0,7.7,0.4,26-1.4,40.2c-2,15.4-8.1,35.9-12,49.5c-8.7,30.6-19.1,58.9-20.5,70.8c-0.8,6.5-2.2,16,1.8,16
				c-3.9,1.6-6.5,22.3-7.9,43.6c41.4,6.7,46.9,39.4,97.8,39.4C296.4,412.4,309.8,406.5,321.3,399.2z"/>
			<path d="M309.3,540.9c0-34.3,11-100.7,11.4-104.7c0.8-6.9,2.4-13.6-1.2-15.2c1.4-1,2-9.7,1.8-21.5c-11.6,7.3-25,13.2-46.7,13.2
				c-50.9,0-56.4-32.5-97.8-39.4c-0.2,3.7-0.4,7.3-0.6,10.8c-0.8,18.7-0.4,35.3,1.6,36.9c-3.7,1.6-2,8.5-1.2,15.2
				c0.4,4.1,11.4,70.6,11.6,104.7c0,32.1-6.1,47.3-8.9,56.4c-3.9,12.8-8.1,45.5,6.3,53.8c8.7,5.1,37.1,9.1,63.3,9.1
				s54.6-4.3,63.1-9.3c14.4-8.3,10.1-41,6.1-53.8C315.4,588.2,309.3,573,309.3,540.9z"/>
			<path d="M278.3,401.5c2.4,0,4.3,2,4.3,4.3s-2,4.3-4.3,4.3c-2.2,0-4.3-2-4.3-4.3S275.9,401.5,278.3,401.5z M272.2,426
				c1.6,0,2.8,1.2,2.8,2.8c0,1.6-1.2,2.8-2.8,2.8c-1.6,0-2.8-1.2-2.8-2.8C269.4,427.2,270.8,426,272.2,426z M220.8,355.2
				c-1.2,0-2.2-1-2.2-2.2c0-1.2,1-2.2,2.2-2.2c1.2,0,2.2,1,2.2,2.2C223.1,354.2,222.1,355.2,220.8,355.2z M232.2,369.8
				c-0.8,0.6-1.8,1-2.8,1c-1.8,0-3.2-1-4.1-2.6c-0.2-0.6-0.4-1.2-0.4-2c0-2.4,2-4.7,4.7-4.7c2.4,0,4.7,2,4.7,4.7
				C234,367.8,233.4,369,232.2,369.8z M241.8,343.8c-0.6,0.6-1.4,0.8-2.4,0.8c-1.6,0-2.8-0.8-3.5-2.2c-0.2-0.6-0.4-1-0.4-1.6
				c0-2.2,1.8-3.9,3.9-3.9c2.2,0,3.9,1.8,3.9,3.9C243.4,342,242.8,343.2,241.8,343.8z"/>
			<path d="M272.2,431.7c1.6,0,2.8-1.2,2.8-2.8c0-1.6-1.2-2.8-2.8-2.8c-1.6,0-2.8,1.2-2.8,2.8C269.4,430.5,270.8,431.7,272.2,431.7z
				"/>
			<path d="M229.4,361.7c-2.4,0-4.7,2-4.7,4.7c0,0.6,0.2,1.4,0.4,2c0.8,1.6,2.2,2.6,4.1,2.6c1,0,2-0.4,2.8-1c1-0.8,1.8-2,1.8-3.7
				C234,363.7,232,361.7,229.4,361.7z"/>
			<path d="M278.3,410c2.4,0,4.3-2,4.3-4.3c0-2.4-2-4.3-4.3-4.3c-2.4,0-4.3,2-4.3,4.3C273.8,408.2,275.9,410,278.3,410z"/>
		</g>
	</g>
	<path class="st1" d="M402.4,167.7L402.4,167.7c9.4,0,17,7.6,17,17v458.2c0,9.4-7.6,17-17,17l0,0c-9.4,0-17-7.6-17-17V184.7
		C385.4,175.3,393,167.7,402.4,167.7z"/>
	<line class="st2" x1="395.4" y1="637.5" x2="410.8" y2="637.5"/>
	<line class="st2" x1="395.4" y1="612.8" x2="410.8" y2="612.8"/>
	<line class="st2" x1="395.4" y1="588.1" x2="410.8" y2="588.1"/>
	<line class="st2" x1="395.4" y1="563.4" x2="410.8" y2="563.4"/>
	<line class="st2" x1="395.4" y1="538.7" x2="410.8" y2="538.7"/>
	<line class="st2" x1="395.4" y1="514" x2="410.8" y2="514"/>
	<line class="st2" x1="395.4" y1="489.4" x2="410.8" y2="489.4"/>
	<line class="st2" x1="395.4" y1="464.7" x2="410.8" y2="464.7"/>
	<line class="st2" x1="395.4" y1="440" x2="410.8" y2="440"/>
	<line class="st2" x1="395.4" y1="415.3" x2="410.8" y2="415.3"/>
	<line class="st2" x1="395.4" y1="390.6" x2="410.8" y2="390.6"/>
	<line class="st2" x1="395.4" y1="366" x2="410.8" y2="366"/>
	<line class="st2" x1="395.4" y1="341.3" x2="410.8" y2="341.3"/>
	<line class="st2" x1="395.4" y1="316.6" x2="410.8" y2="316.6"/>
	<line class="st2" x1="395.4" y1="291.9" x2="410.8" y2="291.9"/>
	<line class="st2" x1="395.4" y1="267.2" x2="410.8" y2="267.2"/>
	<line class="st2" x1="395.4" y1="242.5" x2="410.8" y2="242.5"/>
	<line class="st2" x1="395.4" y1="217.9" x2="410.8" y2="217.9"/>
	<line class="st2" x1="395.4" y1="193.2" x2="410.8" y2="193.2"/>
	<line class="st3" x1="394.6" y1="415.3" x2="474.9" y2="415.3"/>
	<path d="M471.8,396h81.8c10.2,0,18.5,8.3,18.5,18.5l0,0c0,10.2-8.3,18.5-18.5,18.5h-81.8c-10.2,0-18.5-8.3-18.5-18.5l0,0
		C453.3,404.3,461.6,396,471.8,396z"/>
</g>
</svg>
