
<svg width="533" height="387" viewBox="0 0 533 387" fill="none" xmlns="http://www.w3.org/2000/svg">
    <g clip-path="url(#clip0_112_47)">
        <path d="M2.90541 326.918C-4.02248 320.102 3.24063 301.888 7.37501 295.184C10.392 290.379 16.2025 282.557 21.0073 264.12C26.0356 244.454 29.8348 204.786 30.17 202.328C30.6169 198.193 30.7287 194.17 33.187 193.724C31.1756 191.042 45.8136 143.105 50.7301 142.435C48.4953 141.876 50.6184 136.624 52.1828 133.049C54.8645 126.456 65.0329 111.818 74.6425 95.504C79.0004 88.1292 85.593 77.4021 89.057 68.7982C92.2974 60.9764 94.7557 50.4728 95.8731 46.0032C94.7557 44.1036 94.4205 43.2097 94.9792 40.8631C95.6497 38.2931 100.454 33.0413 100.678 32.0357C100.901 31.03 101.125 30.1361 100.343 28.7952C99.3371 27.3426 100.008 25.3313 100.901 23.8787C102.131 22.0908 104.589 22.0908 106.041 22.0908C107.382 22.0908 113.863 23.0965 120.456 24.7726C126.937 26.4487 133.194 28.6835 134.423 29.4657C135.764 30.1361 137.999 31.3652 137.999 33.6C138.111 35.3879 137.664 37.3992 136.1 38.2931C134.647 38.9636 134.423 40.081 134.2 41.0866C133.976 41.9805 135.541 48.9084 134.87 51.5902C134.312 54.0485 133.53 54.6072 131.63 55.8363C130.401 60.4177 127.496 70.586 126.49 79.0782C125.372 88.2409 125.819 100.868 126.155 109.36C126.602 128.244 128.389 145.899 127.496 153.05C127.049 156.849 126.378 162.548 124.143 161.989C128.166 165.006 117.551 214.06 114.534 215.401C116.322 216.854 114.422 220.541 112.969 224.34C112.075 226.575 95.8731 263.002 90.7331 282.78C85.9283 301.217 87.1574 310.827 87.4926 316.414C87.8279 324.348 85.4813 343.679 75.9834 346.36C70.2847 347.925 53.3002 346.137 38.2153 342.226C22.7951 337.645 7.03979 331.052 2.90541 326.918Z" fill="#F70000"/>
        <path d="M225.938 386.028C216.328 384.017 212.641 364.909 212.306 356.976C212.194 351.277 212.753 341.556 206.831 323.566C200.35 304.346 181.689 269.036 180.795 266.802C179.007 263.114 176.773 259.539 178.56 257.974C175.432 256.857 161.464 208.697 165.263 205.345C163.028 206.015 162.023 200.54 161.241 196.741C159.788 189.813 160.235 171.934 159.565 153.05C159.229 144.67 158.894 131.931 156.995 122.88C155.318 114.612 151.743 104.443 150.29 100.085C148.279 99.0798 147.497 98.5211 146.826 96.0628C146.156 93.4928 147.05 86.4532 146.826 85.5593C146.491 84.6653 146.156 83.6597 144.703 82.9892C143.139 82.3188 142.58 80.1957 142.58 78.4079C142.58 76.2848 144.703 74.944 145.932 74.05C147.161 73.3796 152.972 70.5861 159.565 68.5748C165.934 66.4517 172.415 64.9991 173.756 64.8874C175.208 64.7756 177.778 64.5521 179.007 66.34C180.125 67.7926 180.795 69.6922 180.013 71.2565C179.343 72.7092 179.678 73.7148 179.901 74.497C180.125 75.3909 185.265 80.4192 186.159 82.8775C187.053 85.3358 186.606 86.118 185.712 88.1293C187.164 92.5989 190.405 102.767 194.092 110.366C198.227 118.523 205.49 129.026 210.183 135.954C220.91 151.486 232.084 165.453 235.213 171.934C236.889 175.398 239.459 180.427 237.224 181.209C242.252 181.544 260.131 228.475 258.231 231.268C260.689 231.492 261.025 235.626 261.695 239.649C262.142 242.107 268.511 281.328 274.992 300.659C281.026 318.537 287.395 326.136 290.636 330.717C295.217 337.198 303.821 354.741 297.228 362.116C293.429 366.585 278.121 374.296 263.371 379.212C248.621 384.24 231.749 387.257 225.938 386.028Z" fill="#F70000"/>
        <path d="M154.425 38.9636C155.877 38.9636 156.995 40.1928 156.995 41.5336C156.995 42.9863 155.765 44.1037 154.425 44.1037C152.972 44.1037 151.854 42.8745 151.854 41.5336C151.854 40.081 152.972 38.9636 154.425 38.9636ZM150.849 53.4898C151.854 53.4898 152.525 54.1603 152.525 55.1659C152.525 56.1716 151.854 56.842 150.849 56.842C149.843 56.842 149.173 56.1716 149.173 55.1659C149.173 54.272 149.955 53.4898 150.849 53.4898ZM120.344 11.5873C119.45 11.5873 119.003 11.0286 119.003 10.2464C119.003 9.576 119.562 8.90556 120.344 8.90556C121.014 8.90556 121.685 9.46426 121.685 10.2464C121.685 10.9169 121.014 11.5873 120.344 11.5873ZM127.16 20.1913C126.713 20.5265 126.043 20.75 125.484 20.75C124.366 20.75 123.473 20.1913 123.026 19.1856C122.914 18.8504 122.802 18.5152 122.802 17.9565C122.802 16.5039 124.031 15.163 125.596 15.163C127.048 15.163 128.389 16.3921 128.389 17.9565C128.166 19.0739 127.83 19.7443 127.16 20.1913ZM132.747 4.88292C132.412 5.21814 131.853 5.32988 131.294 5.32988C130.289 5.32988 129.618 4.88292 129.283 3.989C129.171 3.65378 129.06 3.4303 129.06 2.98334C129.06 1.64246 130.177 0.748535 131.294 0.748535C132.635 0.748535 133.529 1.86594 133.529 2.98334C133.641 3.76552 133.306 4.43596 132.747 4.88292Z" fill="#F70000"/>
        <path d="M150.849 56.8419C151.855 56.8419 152.525 56.1715 152.525 55.1658C152.525 54.1602 151.855 53.4897 150.849 53.4897C149.843 53.4897 149.173 54.1602 149.173 55.1658C149.173 56.1715 149.955 56.8419 150.849 56.8419Z" fill="#F70000"/>
        <path d="M125.484 15.3865C124.031 15.3865 122.69 16.6156 122.69 18.18C122.69 18.5152 122.802 19.0739 122.914 19.4091C123.361 20.4148 124.255 20.9735 125.372 20.9735C125.931 20.9735 126.601 20.75 127.048 20.4148C127.607 19.9678 128.166 19.1856 128.166 18.2917C128.166 16.6156 126.937 15.3865 125.484 15.3865Z" fill="#F70000"/>
        <path d="M154.425 43.9919C155.877 43.9919 156.995 42.7627 156.995 41.4218C156.995 39.9692 155.765 38.8518 154.425 38.8518C152.972 38.8518 151.854 40.081 151.854 41.4218C151.854 42.9862 152.972 43.9919 154.425 43.9919Z" fill="#F70000"/>
        <path d="M234.878 198.417C234.878 198.417 234.878 200.093 234.766 202.216C234.654 204.339 234.431 207.356 234.431 207.356C234.431 207.356 236.219 207.915 237.559 206.909C239.124 205.68 239.682 202.663 239.347 199.199C239.124 195.847 237.895 192.494 237.895 192.494C237.895 192.494 238.23 196.852 236.665 197.97C235.995 198.64 234.878 198.417 234.878 198.417Z" fill="black"/>
        <path d="M45.4781 249.37C43.355 249.594 44.4724 240.319 45.5898 234.173C46.5955 228.363 48.0481 223.67 48.0481 223.67C48.0481 223.67 48.2716 226.128 49.9477 227.804C51.7355 229.592 53.2999 229.704 53.2999 229.704C53.2999 229.704 52.4059 233.838 50.6181 238.755C48.8303 244.007 47.1542 249.147 45.4781 249.37ZM54.1938 226.352C54.1938 226.352 51.959 226.352 50.7299 224.117C49.2772 221.323 49.7242 217.636 51.7355 213.725C54.1938 209.032 56.9873 207.021 56.5403 214.284C56.0934 219.535 54.1938 226.352 54.1938 226.352ZM57.4343 229.592C58.4399 229.369 59.3338 228.698 59.3338 228.698C59.3338 228.698 55.9816 236.855 56.4286 246.465C56.7638 253.728 59.4456 261.326 65.8148 257.527C71.5135 254.175 77.7709 243.448 77.7709 243.448C77.7709 243.448 75.5361 249.258 77.5475 254.175C79.1118 257.974 83.5814 258.533 88.1628 255.851C92.8559 253.169 96.2081 248.923 96.2081 248.923C96.2081 248.923 95.7611 253.728 97.9959 255.963C100.901 258.98 108.611 257.527 116.098 249.035C122.914 241.325 130.177 227.022 130.177 227.022H126.043C126.043 227.022 119.785 237.973 115.316 243.224C111.069 248.141 107.27 247.359 109.952 241.772C115.092 230.933 130.065 200.316 130.065 200.316C130.065 200.316 127.272 200.316 123.808 200.316C120.567 200.428 118.333 200.428 118.333 200.428L116.88 203.557C116.88 203.557 114.98 199.199 109.393 199.981C103.471 200.651 93.8615 210.038 87.4923 220.653C81.7936 230.151 80.6762 233.615 75.9831 240.654C71.0665 248.029 63.4682 253.169 64.8091 239.76C66.0382 228.139 74.4187 207.356 81.7936 207.468C84.8106 207.468 84.5871 211.602 84.5871 211.602C84.5871 211.602 81.3466 210.708 78.7766 214.172C76.7653 216.965 76.6535 221.547 79.3353 221.882C84.1401 222.552 88.498 214.395 87.2688 207.132C86.1514 200.54 80.341 198.64 71.1783 208.026C66.5969 212.831 64.1387 217.077 62.2391 220.206C59.5573 224.899 56.5403 225.569 56.5403 225.569C56.5403 225.569 58.3282 218.753 58.9986 213.278C60.3395 201.322 54.3055 199.087 47.2659 213.725C41.5672 225.458 38.6619 242.107 39.6676 252.499C40.6732 261.438 44.6959 263.114 49.8359 247.47C53.2999 237.079 55.3112 229.592 55.3112 229.592C55.3112 229.592 56.4286 229.927 57.4343 229.592ZM97.3255 222.776C101.907 215.401 108.053 206.015 112.075 205.791C114.533 205.68 114.757 207.579 114.757 207.579C114.757 207.579 106.153 225.905 100.119 236.296C96.8785 241.995 91.9619 248.588 89.1684 246.353C85.8162 243.671 92.2972 230.821 97.3255 222.776Z" fill="black"/>
        <path d="M193.869 261.214C196.439 253.169 200.35 246.688 200.35 246.688C200.35 246.688 200.573 250.04 203.255 253.057C205.378 255.627 209.065 256.074 209.065 256.074C209.065 256.074 205.49 264.567 200.685 270.265C194.092 277.975 189.958 273.841 193.869 261.214ZM232.196 269.595C232.196 265.684 233.648 260.321 235.324 252.387C237.112 244.23 237.336 243.224 238.118 239.649C239.235 233.95 240.017 234.173 239.906 239.202C239.794 243.448 238.341 256.298 235.66 266.466C234.095 272.388 232.196 273.171 232.196 269.595ZM210.853 251.493C210.853 251.493 207.278 251.158 205.937 247.023C204.931 244.118 205.378 239.425 207.836 236.408C210.518 233.168 213.759 235.403 213.312 241.325C212.976 247.135 210.853 251.493 210.853 251.493ZM232.754 183.89C232.307 187.578 232.196 195.176 227.279 214.619C223.256 230.039 217.111 250.823 217.111 250.823C217.111 250.823 216.217 251.158 215.435 251.381C214.764 251.605 213.982 251.605 213.982 251.605C213.982 251.605 218.005 241.101 215.993 233.056C214.541 227.245 209.289 227.022 202.361 232.832C187.835 245.124 178.337 268.366 180.125 279.428C182.136 291.049 192.081 284.792 199.679 276.523C206.942 268.589 212.082 256.074 212.082 256.074C212.082 256.074 213.088 255.963 213.87 255.851C214.876 255.739 215.658 255.404 215.658 255.404C215.658 255.404 212.865 265.461 212.306 274.512C211.859 281.775 215.546 285.797 219.904 281.551C223.592 277.864 225.938 271.606 225.938 271.606C225.938 271.606 225.044 277.64 226.832 280.881C228.285 283.786 230.408 281.439 232.084 278.981C233.872 276.299 234.654 273.171 234.654 273.171C234.654 273.171 234.207 278.087 235.213 280.545C236.33 283.116 239.012 278.646 240.353 271.159C242.141 261.661 242.476 253.84 242.476 253.84H242.029C242.029 253.84 241.358 261.326 240.241 267.137C239.347 271.159 238.23 271.495 238.788 268.254C242.364 245.459 241.023 231.156 241.023 231.156H240.464V232.497C240.464 232.497 239.794 229.033 237.783 231.38C236.442 233.056 234.877 239.425 231.19 251.828C227.503 264.343 224.709 272.724 222.027 273.171C219.904 273.506 220.798 266.354 222.139 259.874C223.592 253.393 224.262 250.264 224.262 250.264C224.262 250.264 230.743 245.571 234.766 230.262C237.783 218.977 237.559 207.914 237.559 207.914C237.559 207.914 237.447 208.026 237.224 208.026C237.001 208.138 236.889 208.138 236.889 208.138C236.889 208.138 236.665 216.183 233.984 226.016C230.631 238.308 225.827 243.671 225.827 243.671C225.827 243.671 229.29 230.598 231.078 221.435C234.095 205.903 234.542 195.064 234.319 188.807C234.207 185.455 234.989 186.907 235.66 190.036C236.33 193.835 236.33 196.964 236.33 196.964C236.33 196.964 236.554 196.852 236.665 196.405C236.777 196.07 236.777 195.511 236.777 195.176C236.777 193.947 236.442 191.042 235.883 188.695C234.766 183.22 233.201 181.097 232.754 183.89Z" fill="black"/>
        <path d="M193.869 194.506C198.45 186.907 203.59 183.555 203.59 183.555C203.59 183.555 206.496 188.584 203.143 201.098C200.573 210.261 194.204 216.742 190.629 215.066C187.053 213.39 188.617 203.333 193.869 194.506ZM147.05 218.418C132.3 239.76 122.691 265.684 130.959 278.423C141.91 295.184 161.688 283.004 169.957 274.065C177.667 265.796 183.924 255.292 185.824 244.9C188.841 229.145 177.89 223.111 165.152 236.073C155.319 246.018 152.749 264.12 152.749 264.12C152.749 264.12 156.995 260.097 161.129 257.192C165.04 254.398 167.834 252.946 167.834 252.946C167.834 252.946 170.068 242.777 174.538 237.526C178.672 232.833 184.036 234.285 182.36 242.666C180.348 252.387 176.214 260.544 170.404 267.472C164.37 274.512 152.86 281.998 146.826 274.847C139.787 266.355 148.391 243.336 159.9 223.893C170.739 205.568 185.489 187.019 193.31 182.326C197.892 179.533 200.685 180.873 200.685 180.873C200.685 180.873 197.445 183.332 193.757 187.913C186.941 196.741 184.148 205.456 184.818 212.049C185.824 220.094 192.305 221.1 197.668 215.401C202.696 210.149 206.049 200.093 206.831 193.724C207.725 186.125 206.16 182.103 206.16 182.103C206.16 182.103 208.619 180.762 211.077 181.097C215.211 181.544 218.005 186.125 222.028 193.165C225.491 199.422 228.397 202.886 228.397 202.886C228.397 202.886 228.955 200.428 229.626 198.193C229.961 196.629 230.52 194.729 230.52 194.729C230.52 194.729 227.391 190.707 224.374 185.79C221.804 181.656 218.117 176.069 211.636 176.18C207.948 176.292 204.373 178.192 204.373 178.192C204.373 178.192 201.803 174.393 196.104 175.063C182.695 176.627 161.911 196.964 147.05 218.418Z" fill="black"/>
        <path d="M56.0934 178.303C49.0538 182.773 41.4555 197.411 36.7624 221.994C33.4102 239.537 28.8289 277.529 37.7681 281.886C42.9081 284.456 46.9307 278.199 53.7469 275.182C60.1161 272.389 67.4909 271.942 72.631 274.959C79.1119 278.646 82.1289 287.25 82.1289 287.25C82.1289 287.25 84.0284 282.445 92.8559 280.881C104.365 278.981 114.757 287.809 114.757 287.809C114.757 287.809 101.795 268.925 84.1402 266.243C73.0779 264.567 62.0157 267.807 53.6351 272.389C47.6012 275.629 42.7964 278.423 39.2207 276.411C32.628 272.724 33.7454 246.688 38.3268 224.676C43.2433 201.769 50.6182 189.589 55.3112 185.343C58.8869 182.103 61.4569 182.326 62.1274 184.337C62.5744 185.79 61.6804 187.243 61.6804 187.243C61.6804 187.243 59.5574 187.354 57.8813 190.036C55.9817 193.053 55.3112 198.305 57.3226 198.975C59.1104 199.534 62.4626 196.741 64.1387 189.813C66.7087 178.862 61.6804 174.728 56.0934 178.303Z" fill="black"/>
        <path d="M143.698 211.937H132.3L137.776 200.54H149.173L143.698 211.937Z" fill="black"/>
        <path d="M296.67 143.552L291.53 167.688H292.089C300.916 167.688 307.844 158.19 307.844 150.033C307.844 143.776 303.71 138.3 293.43 138.3C280.691 138.3 266.165 146.793 266.165 164.783C266.165 170.258 267.618 171.264 267.729 172.269C260.466 172.269 256.108 169.476 256.108 162.325C256.108 147.351 275.104 133.496 295.664 133.496C311.643 133.496 318.906 141.876 318.906 150.815C318.906 157.296 315.107 164.112 307.956 168.135C317.23 169.923 320.806 177.521 320.806 185.678C320.806 196.182 315.107 217.077 296.894 217.077C292.2 217.077 286.055 215.624 286.055 209.032C286.055 207.244 286.502 205.233 287.507 202.663C290.301 205.568 292.312 206.685 294.882 206.685C302.816 206.685 305.721 195.4 305.721 187.131C305.721 179.421 303.263 173.275 295.329 173.275C294.435 173.275 292.312 173.387 290.301 173.61L281.362 215.401H265.606L280.356 146.01L296.67 143.552Z" fill="#F70000"/>
        <path d="M342.26 172.27L336.002 201.545C335.779 202.663 335.667 203.557 335.667 204.339C335.667 206.797 336.785 207.579 339.131 207.579C340.696 207.579 341.366 207.356 341.925 207.132C341.478 213.278 337.12 216.072 332.427 216.072C327.287 216.072 323.152 212.943 323.152 205.68C323.152 204.004 323.376 202.216 323.823 199.981L329.745 172.381H342.26V172.27ZM338.237 154.056C342.036 154.056 345.053 157.185 345.053 160.872C345.053 164.671 341.925 167.688 338.237 167.688C334.438 167.688 331.421 164.671 331.421 160.872C331.533 157.073 334.55 154.056 338.237 154.056ZM366.619 205.792C366.619 204.227 368.295 202.104 371.424 202.104C374.106 202.104 375.223 203.892 375.223 206.239C375.223 210.261 371.424 215.513 364.608 215.513H341.925L363.937 177.074H359.133C356.451 177.074 354.44 177.186 354.44 178.415C354.44 178.862 355.445 178.303 355.445 180.315C355.445 183.555 352.987 184.896 350.752 184.896C348.741 184.896 346.841 183.555 346.841 181.097C346.841 177.633 350.64 172.493 356.786 172.493H378.799L357.568 208.809C359.021 208.92 361.814 209.256 364.161 209.256C366.172 209.256 367.96 208.92 368.295 207.579C367.29 207.468 366.619 206.797 366.619 205.792Z" fill="#F70000"/>
        <path d="M397.124 172.27L390.867 201.545C390.643 202.663 390.532 203.557 390.532 204.339C390.532 206.797 391.649 207.579 393.995 207.579C397.348 207.579 400.476 204.339 401.817 199.981H405.393C400.476 214.06 391.984 215.96 387.291 215.96C382.151 215.96 378.017 212.831 378.017 205.568C378.017 203.892 378.24 202.104 378.687 199.869L384.609 172.27H397.124ZM393.213 154.056C397.012 154.056 400.029 157.185 400.029 160.872C400.029 164.671 396.901 167.688 393.213 167.688C389.414 167.688 386.397 164.671 386.397 160.872C386.509 157.073 389.526 154.056 393.213 154.056Z" fill="#F70000"/>
        <path d="M444.837 179.868C441.709 179.868 439.474 183.443 438.133 187.801L432.211 215.401H419.808L426.065 185.566C426.177 184.896 426.289 184.226 426.289 183.443C426.289 181.544 425.618 179.644 423.607 179.644C420.255 179.644 417.908 183.332 416.679 187.69L410.757 215.289H398.354L407.516 172.158H419.919L418.914 176.627C422.489 172.493 426.4 171.711 429.529 171.711C434.11 171.711 437.463 173.722 438.468 179.197C442.603 172.828 447.296 171.822 450.536 171.822C456.011 171.822 460.146 174.728 460.146 181.544C460.146 188.472 456.011 198.975 456.011 203.78C456.011 205.903 456.905 207.356 459.475 207.356C463.274 207.356 464.727 204.227 466.738 199.757H470.314C465.509 213.948 458.917 215.736 454.335 215.736C446.849 215.736 444.167 210.931 444.167 206.015C444.167 200.093 447.966 189.589 447.966 184.002C447.966 181.432 446.96 179.868 444.837 179.868Z" fill="#F70000"/>
        <path d="M478.694 201.545C478.583 202.439 478.359 203.221 478.359 204.115C478.359 206.127 479.253 207.579 481.823 207.579C483.387 207.579 484.058 207.356 484.617 207.132C484.17 213.278 479.812 216.183 475.119 216.183C469.979 216.183 465.844 212.943 465.844 205.568C465.844 203.892 466.068 202.104 466.515 199.869L475.789 156.738L488.527 155.062L478.694 201.545Z" fill="#F70000"/>
        <path d="M505.289 176.627C499.031 176.516 496.238 178.639 493.779 180.874L491.321 178.304C497.69 171.711 502.272 171.599 507.076 171.599C514.563 171.599 518.139 176.292 518.139 185.455V185.902C518.474 185.902 518.809 185.902 519.256 185.79C523.726 185.12 528.642 182.885 532.33 180.427L533 182.661C529.76 186.125 521.156 189.924 517.692 189.924C516.351 205.903 507.747 215.848 497.132 215.848C489.086 215.848 483.276 212.049 483.276 202.216C483.276 192.271 493.109 186.125 510.876 186.125C511.099 180.65 511.434 176.627 505.289 176.627ZM495.344 200.987C495.344 206.686 497.355 207.915 500.596 207.915C504.842 207.915 509.2 200.093 510.54 190.036C504.506 190.036 495.344 192.606 495.344 200.987Z" fill="#F70000"/>
        <path d="M348.07 106.008V115.617H343.266V92.7107H348.07V101.762H358.909V92.7107H363.714V115.617H358.909V106.008H348.07Z" fill="black"/>
        <path d="M384.497 92.7107V96.9568H373.1V101.873H384.162V106.119H373.1V111.483H384.497V115.729H368.295V92.7107H384.497Z" fill="black"/>
        <path d="M393.325 108.578V115.617H388.52V92.7107H393.325V102.879L401.482 92.7107H407.516L398.353 103.549L408.075 115.729H402.041L395.113 106.566L393.325 108.578Z" fill="black"/>
        <path d="M414.555 111.706L413.103 115.506H407.851L416.79 92.5989H422.936L431.875 115.506H426.512L425.059 111.706H414.555ZM423.606 107.46L419.807 96.845L416.008 107.46H423.606Z" fill="black"/>
        <path d="M428.97 92.7107H434.669L440.368 101.873L446.066 92.7107H451.765L442.938 106.119V115.506H438.021V106.119L428.97 92.7107Z" fill="black"/>
        <path d="M469.755 94.0516C471.655 95.0572 473.107 96.2863 474.225 98.1859C475.342 99.9738 475.901 101.985 475.901 104.443C475.901 106.902 475.454 108.913 474.337 110.701C473.219 112.489 471.767 113.941 470.09 114.947C468.303 115.953 466.403 116.4 464.28 116.4C461.822 116.4 459.699 115.953 457.911 114.835C456.123 113.718 454.782 112.153 453.776 110.142C452.771 108.131 452.324 105.673 452.324 102.879H470.761C470.426 101.091 469.532 99.6386 468.526 98.5212C467.185 97.4038 465.621 96.8451 463.833 96.8451C462.604 96.8451 461.71 97.1803 460.704 97.739C459.699 98.1859 459.028 99.0798 458.469 99.862L454.335 97.739C455.452 96.1746 456.57 94.9455 458.134 94.0516C459.699 93.0459 461.598 92.5989 463.833 92.5989C466.068 92.4872 467.967 92.9341 469.755 94.0516ZM467.856 110.589C469.085 109.583 469.867 108.466 470.314 107.013H457.576C457.911 108.466 458.581 109.807 459.699 110.589C460.816 111.595 462.157 111.93 463.833 111.93C465.286 111.93 466.626 111.595 467.856 110.589Z" fill="black"/>
        <path d="M484.17 115.617H479.365V92.7107H484.393L495.12 107.572V92.7107H499.925V115.617H495.12L484.17 100.197V115.617Z" fill="black"/>
        <path d="M509.199 92.7107V115.617H504.395V92.7107H509.199ZM505.065 86.9002C505.512 86.4532 506.182 86.2297 506.741 86.2297C507.3 86.2297 507.97 86.4532 508.417 86.9002C508.864 87.3471 509.088 88.0176 509.088 88.5763C509.088 89.135 508.864 89.9172 508.529 90.2524C508.082 90.6993 507.412 90.9228 506.853 90.9228C506.294 90.9228 505.624 90.6993 505.177 90.2524C504.73 89.8054 504.506 89.135 504.506 88.5763C504.506 87.9058 504.618 87.4589 505.065 86.9002Z" fill="black"/>
        <path d="M312.984 239.202L306.838 268.031C315.442 267.36 322.035 255.963 322.035 246.8C322.035 240.431 318.906 235.067 311.308 235.067C297.34 235.067 288.96 242.889 288.96 255.963C288.96 260.432 290.077 260.991 290.189 261.885C284.155 261.885 280.915 259.762 280.915 253.504C280.915 242.107 296.782 231.045 311.196 231.045C325.387 231.045 331.533 239.09 331.533 248.029C331.533 258.98 322.147 271.159 306.615 271.159H306.168L300.916 295.854H288.513L300.246 240.99L312.984 239.202Z" fill="#F70000"/>
        <path d="M354.663 265.349L349.634 288.926C349.411 289.932 349.411 290.49 349.411 291.049C349.411 292.949 350.417 294.066 352.316 294.066C355.11 294.066 356.897 291.049 358.015 287.585H360.92C356.897 298.871 350.752 300.435 346.953 300.435C343.153 300.435 340.583 298.312 340.136 294.066C338.013 297.307 334.773 300.435 329.745 300.435C325.052 300.435 320.47 297.53 320.47 289.261C320.47 279.875 326.281 265.014 338.349 265.014C342.26 265.014 344.047 266.578 344.047 268.478V268.925L344.718 265.237H354.663V265.349ZM330.639 288.256C330.639 293.507 332.762 293.619 334.103 293.619C336.114 293.619 339.019 291.608 339.913 287.473L343.265 271.718C343.265 270.824 342.707 269.036 340.36 269.036C334.438 269.26 330.639 281.775 330.639 288.256Z" fill="#F70000"/>
        <path d="M389.749 265.349L382.933 297.53C387.179 295.966 389.749 293.731 391.761 287.585H394.666C391.872 296.748 386.732 299.318 382.375 300.547L381.257 305.575C379.246 315.52 373.324 317.308 368.742 317.308C364.496 317.308 360.92 315.185 360.92 310.604C360.92 304.681 367.066 301.776 372.206 300.212L373.1 296.524C370.195 299.765 367.066 300.324 364.831 300.324C360.585 300.324 357.345 297.754 357.345 292.055C357.345 290.714 357.568 289.15 357.903 287.473L362.597 265.125H372.541L367.513 288.703C367.401 289.261 367.29 289.932 367.29 290.379C367.29 291.943 367.737 293.396 369.301 293.396C371.871 293.396 373.659 290.937 374.664 287.697L379.469 265.014H389.638V265.349H389.749ZM366.954 311.944C368.407 311.944 370.083 309.933 371.089 305.799L371.424 303.787C367.96 305.128 364.608 306.916 364.608 309.71C364.72 310.604 365.502 311.944 366.954 311.944Z" fill="#F70000"/>
        <path d="M409.304 251.381L401.371 288.926C401.147 289.932 401.147 290.49 401.147 291.049C401.147 292.949 402.153 293.619 404.052 293.619C406.846 293.619 409.192 290.937 410.31 287.473H413.215C409.304 298.759 402.376 300.323 398.689 300.323C394.443 300.323 391.202 297.753 391.202 292.055C391.202 290.714 391.426 289.149 391.761 287.473L399.247 252.61L409.304 251.381Z" fill="#F70000"/>
        <path d="M443.496 265.349L438.468 288.926C438.244 289.932 438.244 290.49 438.244 291.049C438.244 292.949 439.25 293.619 441.15 293.619C441.708 293.619 442.267 293.507 442.714 293.396C440.814 298.2 439.474 300.323 435.786 300.323C432.099 300.323 429.529 297.865 428.97 293.843C426.959 297.083 423.606 300.323 418.578 300.323C413.885 300.323 409.304 297.418 409.304 289.149C409.304 279.763 415.114 264.902 427.182 264.902C431.093 264.902 432.881 266.466 432.881 268.366V268.813L433.551 265.125H443.496V265.349ZM419.472 288.256C419.472 293.507 421.595 293.619 422.936 293.619C424.947 293.619 427.853 291.608 428.746 287.473L432.099 271.718C432.099 270.824 431.54 269.036 429.193 269.036C423.271 269.26 419.472 281.775 419.472 288.256Z" fill="#F70000"/>
        <path d="M472.102 287.585C468.526 291.831 464.615 294.401 461.487 296.189C459.364 298.312 456.458 299.653 453.553 299.988L451.877 304.458C453.33 304.123 454.559 303.899 455.564 303.899C458.47 303.899 459.922 305.24 459.922 307.363C459.922 312.392 455.564 315.073 451.654 315.073C448.19 315.073 446.29 314.068 444.167 313.174C444.726 312.056 445.62 311.051 446.96 311.051C449.866 311.051 450.201 312.95 452.1 312.95C453.33 312.95 454.112 311.498 454.112 310.045C454.112 308.816 453.441 307.475 451.318 307.475C449.53 307.475 448.413 307.922 447.743 308.369L450.536 300.547C443.608 300.547 440.479 295.854 440.479 291.608C440.479 288.368 442.267 286.133 444.167 285.127C447.966 278.311 450.536 271.383 452.659 264.567L463.051 263.114C463.945 281.104 464.615 283.786 464.615 288.368C464.615 289.373 464.504 290.155 464.392 291.049C466.291 289.932 468.079 288.591 469.42 287.585H472.102ZM445.843 291.049C445.173 291.049 444.279 290.826 443.943 290.044C443.943 293.284 445.173 294.848 448.19 294.848C451.207 294.848 454.224 293.284 454.224 288.368C454.224 284.792 453.665 282.557 452.883 271.942C451.43 276.523 449.53 280.546 447.184 285.015C448.19 285.351 448.748 286.244 448.748 287.474C448.972 289.261 447.631 291.049 445.843 291.049Z" fill="#F70000"/>
        <path d="M477.018 300.1C474.001 300.1 471.543 297.53 471.543 294.625C471.543 291.608 474.113 289.149 477.018 289.149C480.035 289.149 482.493 291.608 482.493 294.625C482.493 297.53 480.147 300.1 477.018 300.1ZM475.901 284.009L480.817 251.381H490.762L481.711 284.009H475.901Z" fill="#F70000"/>
        <path d="M200.573 36.6172C204.037 32.4828 209.177 29.4658 216.887 29.4658C227.95 29.4658 236.554 37.5111 236.554 49.1321V49.2438C236.554 60.1943 228.62 69.0218 217.446 69.0218C204.708 69.0218 198.674 59.1887 198.674 48.3499C198.674 47.1207 198.674 46.562 198.786 45.5564H227.279C226.05 40.0811 221.804 37.1759 216.776 37.1759C212.194 37.1759 209.066 38.7402 205.825 41.9807L200.573 36.6172ZM227.391 52.8195H207.725C208.395 57.8478 211.859 61.5352 217.446 61.5352C222.698 61.5352 226.274 58.0713 227.391 52.8195Z" fill="black"/>
        <path d="M240.912 64.5521L244.487 59.0768C247.728 61.4234 250.968 62.5408 253.762 62.5408C256.22 62.5408 257.226 61.6469 257.226 60.306V60.1942C257.226 58.4064 254.432 57.8477 251.192 56.842C247.057 55.7246 242.476 53.7133 242.476 48.0146V47.9028C242.476 41.9806 247.281 38.6284 253.203 38.6284C256.89 38.6284 260.913 39.8576 264.154 41.9806L261.025 47.6794C258.12 46.0033 255.214 44.8859 253.091 44.8859C251.08 44.8859 250.074 45.7798 250.074 46.8972V47.0089C250.074 48.5733 252.868 49.5789 255.997 50.4729C260.131 51.8137 264.824 53.8251 264.824 59.1886V59.3003C264.824 65.7812 259.907 68.7982 253.65 68.7982C249.292 69.0217 244.823 67.6808 240.912 64.5521Z" fill="black"/>
        <path d="M270.97 28.5718H279.238V68.5747H270.97V28.5718Z" fill="black"/>
        <path d="M304.492 30.1362H313.543L323.599 46.3385L333.656 30.1362H342.707V68.4631H334.326V43.4333L323.487 59.8591H323.264L312.537 43.6568V68.4631H304.268V30.1362H304.492Z" fill="black"/>
        <path d="M349.635 53.9368C349.635 45.4445 356.451 38.5166 365.614 38.5166C374.665 38.5166 381.481 45.221 381.481 53.7133V53.825C381.481 62.2055 374.665 69.1334 365.502 69.1334C356.451 69.1334 349.635 62.429 349.635 53.9368ZM355.892 28.5718H363.938V35.9466H355.892V28.5718ZM373.212 53.9368C373.212 49.4672 370.083 45.668 365.502 45.668C360.697 45.668 357.904 49.2437 357.904 53.7133V53.825C357.904 58.1829 361.032 61.982 365.614 61.982C370.418 61.982 373.212 58.4064 373.212 53.9368ZM367.29 28.5718H375.335V35.9466H367.29V28.5718Z" fill="black"/>
        <path d="M386.062 53.9367C386.062 45.4445 392.431 38.5166 401.482 38.5166C406.957 38.5166 410.421 40.4162 413.215 43.4332L408.075 48.9084C406.175 46.8971 404.387 45.668 401.37 45.668C397.236 45.668 394.219 49.2436 394.219 53.7133V53.825C394.219 58.4063 397.124 61.982 401.706 61.982C404.499 61.982 406.399 60.7529 408.41 58.8533L413.327 63.7699C410.533 66.8986 407.181 69.1334 401.37 69.1334C392.543 69.1334 386.062 62.3172 386.062 53.9367Z" fill="black"/>
        <path d="M418.466 58.1829V39.1871H426.735V55.5011C426.735 59.412 428.523 61.4233 431.763 61.4233C435.004 61.4233 437.015 59.412 437.015 55.5011V39.1871H445.284V68.5747H437.015V64.4403C435.116 66.8986 432.546 69.1334 428.411 69.1334C422.154 69.0217 418.466 64.8873 418.466 58.1829ZM422.265 28.5718H430.311V35.9466H422.265V28.5718ZM433.663 28.5718H441.708V35.9466H433.663V28.5718Z" fill="black"/>
        <path d="M451.877 62.6524L467.074 45.8914H452.436V39.187H477.465V44.9975L462.269 61.7585H477.465V68.4629H451.989V62.6524H451.877Z" fill="black"/>
        <path d="M510.652 53.6014C510.652 62.0937 504.73 69.0216 496.126 69.0216C486.293 69.0216 481.823 61.4232 481.823 53.0427C481.823 52.3723 481.823 51.7019 481.935 50.8079H502.383C501.601 47.0088 498.919 45.1092 495.232 45.1092C492.439 45.1092 490.427 46.0031 488.081 48.1262L483.276 43.88C486.069 40.4161 489.98 38.4048 495.232 38.4048C504.171 38.5165 510.652 44.6622 510.652 53.6014ZM489.98 56.0597C490.427 59.7471 492.662 62.3172 496.126 62.3172C499.59 62.3172 501.825 59.8589 502.495 56.0597H489.98Z" fill="black"/>
    </g>
    <defs>
        <clipPath id="clip0_112_47">
            <rect width="533" height="385.503" fill="white" transform="translate(0 0.748535)"/>
        </clipPath>
    </defs>
</svg>
